{"pageNumber": 1, "pageSize": 25, "totalResults": 223, "totalPages": 9, "data": [{"matchTypes": [], "matchedCards": [], "id": "lDqm2Q", "name": "Honest Rutstein", "hasPrimer": false, "format": "commander", "areCommentsEnabled": true, "visibility": "public", "publicUrl": "https://moxfield.com/decks/XGifAU1TIX2vugkefhFFaA", "publicId": "XGifAU1TIX2vugkefhFFaA", "likeCount": 0, "viewCount": 2, "commentCount": 0, "sfwCommentCount": 0, "bookmarkCount": 0, "isLegal": false, "authorsCanEdit": false, "isShared": false, "mainCardId": "YeRAm", "mainCardIdIsCardFace": false, "mainCardIdIsBackFace": false, "createdByUser": {"userName": "LagZip", "displayName": "LagZip", "badges": []}, "authors": [{"userName": "LagZip", "displayName": "LagZip", "badges": []}], "createdAtUtc": "2026-07-16T00:38:28.94Z", "lastUpdatedAtUtc": "2026-07-16T15:45:59.927Z", "mainboardCount": 104, "sideboardCount": 0, "maybeboardCount": 10, "hubNames": [], "colors": ["B", "G"], "colorPercentages": {"white": 0, "blue": 0, "black": 0.03, "red": 0, "green": 0.97}, "colorIdentity": ["B", "G"], "colorIdentityPercentages": {"white": 0, "blue": 0, "black": 0.03, "red": 0, "green": 0.97}, "bracket": 2, "autoBracket": 2, "ignoreBrackets": false}, {"matchTypes": [], "matchedCards": [], "id": "gvpgyw", "name": "Bugenhagen, Wise Elder", "hasPrimer": false, "format": "commander", "areCommentsEnabled": true, "visibility": "public", "publicUrl": "https://moxfield.com/decks/oR9ham1upkmlam7J-X9tog", "publicId": "oR9ham1upkmlam7J-X9tog", "likeCount": 0, "viewCount": 8, "commentCount": 0, "sfwCommentCount": 0, "bookmarkCount": 0, "isLegal": true, "authorsCanEdit": false, "isShared": false, "mainCardId": "8Rx4O", "mainCardIdIsCardFace": false, "mainCardIdIsBackFace": false, "createdByUser": {"userName": "LagZip", "displayName": "LagZip", "badges": []}, "authors": [{"userName": "LagZip", "displayName": "LagZip", "badges": []}], "createdAtUtc": "2026-07-16T15:27:54.89Z", "lastUpdatedAtUtc": "2026-07-16T15:44:21.44Z", "mainboardCount": 100, "sideboardCount": 2, "maybeboardCount": 0, "hubNames": [], "colors": ["G"], "colorPercentages": {"white": 0, "blue": 0, "black": 0, "red": 0, "green": 1}, "colorIdentity": ["G"], "colorIdentityPercentages": {"white": 0, "blue": 0, "black": 0, "red": 0, "green": 1}, "bracket": 2, "autoBracket": 2, "ignoreBrackets": false}, {"matchTypes": [], "matchedCards": [], "id": "bwlz6P", "name": "Sauron, Dino Devotee", "hasPrimer": false, "format": "commander", "areCommentsEnabled": true, "visibility": "public", "publicUrl": "https://moxfield.com/decks/BwVJ8NtKq0KzDkYYMiop-A", "publicId": "BwVJ8NtKq0KzDkYYMiop-A", "likeCount": 0, "viewCount": 11, "commentCount": 0, "sfwCommentCount": 0, "bookmarkCount": 0, "isLegal": true, "authorsCanEdit": false, "isShared": false, "mainCardId": "WO6pZ", "mainCardIdIsCardFace": false, "mainCardIdIsBackFace": false, "createdByUser": {"userName": "LagZip", "displayName": "LagZip", "badges": []}, "authors": [{"userName": "LagZip", "displayName": "LagZip", "badges": []}], "createdAtUtc": "2026-07-13T18:00:50.373Z", "lastUpdatedAtUtc": "2026-07-16T11:47:02.51Z", "mainboardCount": 100, "sideboardCount": 1, "maybeboardCount": 0, "hubNames": [], "colors": ["G"], "colorPercentages": {"white": 0, "blue": 0, "black": 0, "red": 0, "green": 1}, "colorIdentity": ["G"], "colorIdentityPercentages": {"white": 0, "blue": 0, "black": 0, "red": 0, "green": 1}, "bracket": 2, "autoBracket": 2, "ignoreBrackets": false}, {"matchTypes": [], "matchedCards": [], "id": "Qj0NZe", "name": "Goreclaw, Terror of Qal Sisma", "hasPrimer": false, "format": "commander", "areCommentsEnabled": true, "visibility": "public", "publicUrl": "https://moxfield.com/decks/AGYN64i1vEOE0zZB2pD_XA", "publicId": "AGYN64i1vEOE0zZB2pD_XA", "likeCount": 0, "viewCount": 1, "commentCount": 0, "sfwCommentCount": 0, "bookmarkCount": 0, "isLegal": false, "authorsCanEdit": false, "isShared": false, "mainCardId": "MxAo6", "mainCardIdIsCardFace": false, "mainCardIdIsBackFace": false, "createdByUser": {"userName": "LagZip", "displayName": "LagZip", "badges": []}, "authors": [{"userName": "LagZip", "displayName": "LagZip", "badges": []}], "createdAtUtc": "2026-07-13T22:38:58.34Z", "lastUpdatedAtUtc": "2026-07-13T22:48:06.673Z", "mainboardCount": 61, "sideboardCount": 0, "maybeboardCount": 0, "hubNames": [], "colors": ["G"], "colorPercentages": {"white": 0, "blue": 0, "black": 0, "red": 0, "green": 1}, "colorIdentity": ["G"], "colorIdentityPercentages": {"white": 0, "blue": 0, "black": 0, "red": 0, "green": 1}, "bracket": 2, "autoBracket": 2, "ignoreBrackets": false}, {"matchTypes": [], "matchedCards": [], "id": "6633mO", "name": "Azusa, Lost but Seeking", "hasPrimer": false, "format": "commander", "areCommentsEnabled": true, "visibility": "public", "publicUrl": "https://moxfield.com/decks/aK67wALKvkSkI3G38O-vrg", "publicId": "aK67wALKvkSkI3G38O-vrg", "likeCount": 0, "viewCount": 8, "commentCount": 0, "sfwCommentCount": 0, "bookmarkCount": 0, "isLegal": true, "authorsCanEdit": false, "isShared": false, "mainCardId": "BXzp8", "mainCardIdIsCardFace": false, "mainCardIdIsBackFace": false, "createdByUser": {"userName": "LagZip", "displayName": "LagZip", "badges": []}, "authors": [{"userName": "LagZip", "displayName": "LagZip", "badges": []}], "createdAtUtc": "2026-07-13T21:34:10.48Z", "lastUpdatedAtUtc": "2026-07-13T22:24:06.513Z", "mainboardCount": 100, "sideboardCount": 0, "maybeboardCount": 4, "hubNames": [], "colors": ["G"], "colorPercentages": {"white": 0, "blue": 0, "black": 0, "red": 0, "green": 1}, "colorIdentity": ["G"], "colorIdentityPercentages": {"white": 0, "blue": 0, "black": 0, "red": 0, "green": 1}, "bracket": 2, "autoBracket": 2, "ignoreBrackets": false}, {"matchTypes": [], "matchedCards": [], "id": "av7Xmx", "name": "Oviya Pashiri, Sage Lifecrafter", "hasPrimer": false, "format": "commander", "areCommentsEnabled": true, "visibility": "public", "publicUrl": "https://moxfield.com/decks/RmustPjBME6HuVxV-70tkw", "publicId": "RmustPjBME6HuVxV-70tkw", "likeCount": 0, "viewCount": 2, "commentCount": 0, "sfwCommentCount": 0, "bookmarkCount": 0, "isLegal": false, "authorsCanEdit": false, "isShared": false, "mainCardId": "xRaZQ", "mainCardIdIsCardFace": false, "mainCardIdIsBackFace": false, "createdByUser": {"userName": "LagZip", "displayName": "LagZip", "badges": []}, "authors": [{"userName": "LagZip", "displayName": "LagZip", "badges": []}], "createdAtUtc": "2026-07-13T19:57:27.717Z", "lastUpdatedAtUtc": "2026-07-13T19:57:27.717Z", "mainboardCount": 1, "sideboardCount": 0, "maybeboardCount": 0, "hubNames": [], "colors": ["G"], "colorPercentages": {"white": 0, "blue": 0, "black": 0, "red": 0, "green": 1}, "colorIdentity": ["G"], "colorIdentityPercentages": {"white": 0, "blue": 0, "black": 0, "red": 0, "green": 1}, "bracket": 2, "autoBracket": 2, "ignoreBrackets": false}, {"matchTypes": [], "matchedCards": [], "id": "1j5VGR", "name": "Malcolm, Keen-Eyed Navigator / Kediss, Emberclaw Familiar", "hasPrimer": false, "format": "commander", "areCommentsEnabled": true, "visibility": "public", "publicUrl": "https://moxfield.com/decks/AGrM8WBrlESt-OlE1g3iYw", "publicId": "AGrM8WBrlESt-OlE1g3iYw", "likeCount": 0, "viewCount": 19, "commentCount": 0, "sfwCommentCount": 0, "bookmarkCount": 0, "isLegal": false, "authorsCanEdit": false, "isShared": false, "mainCardId": "WabZG", "mainCardIdIsCardFace": false, "mainCardIdIsBackFace": false, "createdByUser": {"userName": "LagZip", "displayName": "LagZip", "badges": []}, "authors": [{"userName": "LagZip", "displayName": "LagZip", "badges": []}], "createdAtUtc": "2026-06-07T11:33:06.853Z", "lastUpdatedAtUtc": "2026-07-10T17:09:42.943Z", "mainboardCount": 60, "sideboardCount": 41, "maybeboardCount": 21, "hubNames": [], "colors": ["U", "R"], "colorPercentages": {"white": 0, "blue": 0.47, "black": 0, "red": 0.53, "green": 0}, "colorIdentity": ["U", "R"], "colorIdentityPercentages": {"white": 0, "blue": 0.48, "black": 0, "red": 0.52, "green": 0}, "bracket": 2, "autoBracket": 2, "ignoreBrackets": false}, {"matchTypes": [], "matchedCards": [], "id": "Pg86Vv", "name": "Malcolm, Keen-Eyed Navigator / Kediss, Emberclaw Familiar (PLAYTEST)", "hasPrimer": false, "format": "commander", "areCommentsEnabled": true, "visibility": "public", "publicUrl": "https://moxfield.com/decks/pwmfARREd3603arCxqzGUg", "publicId": "pwmfARREd3603arCxqzGUg", "likeCount": 0, "viewCount": 12, "commentCount": 0, "sfwCommentCount": 0, "bookmarkCount": 0, "isLegal": false, "authorsCanEdit": false, "isShared": false, "mainCardId": "WabZG", "mainCardIdIsCardFace": false, "mainCardIdIsBackFace": false, "createdByUser": {"userName": "LagZip", "displayName": "LagZip", "badges": []}, "authors": [{"userName": "LagZip", "displayName": "LagZip", "badges": []}], "createdAtUtc": "2026-06-27T15:16:24.723Z", "lastUpdatedAtUtc": "2026-07-10T16:37:06.5Z", "mainboardCount": 101, "sideboardCount": 0, "maybeboardCount": 19, "hubNames": [], "colors": ["U", "R"], "colorPercentages": {"white": 0, "blue": 0.48, "black": 0, "red": 0.52, "green": 0}, "colorIdentity": ["U", "R"], "colorIdentityPercentages": {"white": 0, "blue": 0.49, "black": 0, "red": 0.51, "green": 0}, "bracket": 2, "autoBracket": 2, "ignoreBrackets": false}, {"matchTypes": [], "matchedCards": [], "id": "0r82rm", "name": "Ketramose, the New Dawn", "hasPrimer": false, "format": "commander", "areCommentsEnabled": true, "visibility": "public", "publicUrl": "https://moxfield.com/decks/1UifAdJ2X3-d1bOfTg3Kdw", "publicId": "1UifAdJ2X3-d1bOfTg3Kdw", "likeCount": 0, "viewCount": 2, "commentCount": 0, "sfwCommentCount": 0, "bookmarkCount": 0, "isLegal": false, "authorsCanEdit": false, "isShared": false, "mainCardId": "7Rd9B", "mainCardIdIsCardFace": false, "mainCardIdIsBackFace": false, "createdByUser": {"userName": "LagZip", "displayName": "LagZip", "badges": []}, "authors": [{"userName": "LagZip", "displayName": "LagZip", "badges": []}], "createdAtUtc": "2026-07-09T21:42:56.98Z", "lastUpdatedAtUtc": "2026-07-09T21:43:02.727Z", "mainboardCount": 99, "sideboardCount": 2, "maybeboardCount": 47, "hubNames": [], "colors": ["W", "B"], "colorPercentages": {"white": 0.6, "blue": 0, "black": 0.4, "red": 0, "green": 0}, "colorIdentity": ["W", "B"], "colorIdentityPercentages": {"white": 0.58, "blue": 0, "black": 0.42, "red": 0, "green": 0}, "bracket": 3, "autoBracket": 3, "ignoreBrackets": false}, {"matchTypes": [], "matchedCards": [], "id": "WxXXzD", "name": "Nylea, Keen-Eyed", "hasPrimer": false, "format": "commander", "areCommentsEnabled": true, "visibility": "public", "publicUrl": "https://moxfield.com/decks/18LJzKk8e06XXggmAGKEOg", "publicId": "18LJzKk8e06XXggmAGKEOg", "likeCount": 0, "viewCount": 8, "commentCount": 0, "sfwCommentCount": 0, "bookmarkCount": 0, "isLegal": false, "authorsCanEdit": false, "isShared": false, "mainCardId": "YeRAm", "mainCardIdIsCardFace": false, "mainCardIdIsBackFace": false, "createdByUser": {"userName": "LagZip", "displayName": "LagZip", "badges": []}, "authors": [{"userName": "LagZip", "displayName": "LagZip", "badges": []}], "createdAtUtc": "2026-07-09T20:18:08.387Z", "lastUpdatedAtUtc": "2026-07-09T21:41:41.043Z", "mainboardCount": 48, "sideboardCount": 52, "maybeboardCount": 10, "hubNames": [], "colors": ["G"], "colorPercentages": {"white": 0, "blue": 0, "black": 0, "red": 0, "green": 1}, "colorIdentity": ["G"], "colorIdentityPercentages": {"white": 0, "blue": 0, "black": 0, "red": 0, "green": 1}, "bracket": 2, "autoBracket": 2, "ignoreBrackets": false}, {"matchTypes": [], "matchedCards": [], "id": "ONX6zo", "name": "Nylea, Keen-Eyed (PLAYTEST)", "hasPrimer": false, "format": "commander", "areCommentsEnabled": true, "visibility": "public", "publicUrl": "https://moxfield.com/decks/0kifAQgNEHaMIW2hJ42EFQ", "publicId": "0kifAQgNEHaMIW2hJ42EFQ", "likeCount": 0, "viewCount": 11, "commentCount": 0, "sfwCommentCount": 0, "bookmarkCount": 0, "isLegal": true, "authorsCanEdit": false, "isShared": false, "mainCardId": "YeRAm", "mainCardIdIsCardFace": false, "mainCardIdIsBackFace": false, "createdByUser": {"userName": "LagZip", "displayName": "LagZip", "badges": []}, "authors": [{"userName": "LagZip", "displayName": "LagZip", "badges": []}], "createdAtUtc": "2026-07-09T21:39:13.287Z", "lastUpdatedAtUtc": "2026-07-09T21:39:19.703Z", "mainboardCount": 100, "sideboardCount": 0, "maybeboardCount": 10, "hubNames": [], "colors": ["G"], "colorPercentages": {"white": 0, "blue": 0, "black": 0, "red": 0, "green": 1}, "colorIdentity": ["G"], "colorIdentityPercentages": {"white": 0, "blue": 0, "black": 0, "red": 0, "green": 1}, "bracket": 2, "autoBracket": 2, "ignoreBrackets": false}, {"matchTypes": [], "matchedCards": [], "id": "WAqRwr", "name": "Ketramose, the New Dawn (Combo) ", "hasPrimer": false, "format": "commander", "areCommentsEnabled": true, "visibility": "public", "publicUrl": "https://moxfield.com/decks/0zQe0LffFEWxGWepCXkc0Q", "publicId": "0zQe0LffFEWxGWepCXkc0Q", "likeCount": 0, "viewCount": 51, "commentCount": 0, "sfwCommentCount": 0, "bookmarkCount": 0, "isLegal": false, "authorsCanEdit": false, "isShared": false, "mainCardId": "7Rd9B", "mainCardIdIsCardFace": false, "mainCardIdIsBackFace": false, "createdByUser": {"userName": "LagZip", "displayName": "LagZip", "badges": []}, "authors": [{"userName": "LagZip", "displayName": "LagZip", "badges": []}], "createdAtUtc": "2026-05-06T21:29:15.53Z", "lastUpdatedAtUtc": "2026-07-09T19:18:27.447Z", "mainboardCount": 99, "sideboardCount": 2, "maybeboardCount": 47, "hubNames": [], "colors": ["W", "B"], "colorPercentages": {"white": 0.6, "blue": 0, "black": 0.4, "red": 0, "green": 0}, "colorIdentity": ["W", "B"], "colorIdentityPercentages": {"white": 0.58, "blue": 0, "black": 0.42, "red": 0, "green": 0}, "bracket": 3, "autoBracket": 3, "ignoreBrackets": false}, {"matchTypes": [], "matchedCards": [], "id": "ZNBPqX", "name": "Galadriel of Lothl\u00f3rien", "hasPrimer": false, "format": "commander", "areCommentsEnabled": true, "visibility": "public", "publicUrl": "https://moxfield.com/decks/yLTwuJg8pUiz4vohd-0ZFg", "publicId": "yLTwuJg8pUiz4vohd-0ZFg", "likeCount": 0, "viewCount": 12, "commentCount": 0, "sfwCommentCount": 0, "bookmarkCount": 0, "isLegal": false, "authorsCanEdit": false, "isShared": false, "mainCardId": "lozgn", "mainCardIdIsCardFace": false, "mainCardIdIsBackFace": false, "createdByUser": {"userName": "LagZip", "displayName": "LagZip", "badges": []}, "authors": [{"userName": "LagZip", "displayName": "LagZip", "badges": []}], "createdAtUtc": "2025-11-01T20:33:41.933Z", "lastUpdatedAtUtc": "2026-07-09T13:30:50.42Z", "mainboardCount": 76, "sideboardCount": 0, "maybeboardCount": 0, "hubNames": [], "colors": ["U", "G"], "colorPercentages": {"white": 0, "blue": 0.27, "black": 0, "red": 0, "green": 0.73}, "colorIdentity": ["U", "G"], "colorIdentityPercentages": {"white": 0, "blue": 0.29, "black": 0, "red": 0, "green": 0.71}, "bracket": 2, "autoBracket": 2, "ignoreBrackets": false}, {"matchTypes": [], "matchedCards": [], "id": "y7lXZ0", "name": "Xyris, the Writhing Storm (Tokens)", "hasPrimer": false, "format": "commander", "areCommentsEnabled": true, "visibility": "public", "publicUrl": "https://moxfield.com/decks/nRxZ8ldpOkGNbaOSUnyPkQ", "publicId": "nRxZ8ldpOkGNbaOSUnyPkQ", "likeCount": 0, "viewCount": 104, "commentCount": 1, "sfwCommentCount": 1, "bookmarkCount": 0, "isLegal": true, "authorsCanEdit": false, "isShared": false, "mainCardId": "6JvJO", "mainCardIdIsCardFace": false, "mainCardIdIsBackFace": false, "createdByUser": {"userName": "LagZip", "displayName": "LagZip", "badges": []}, "authors": [{"userName": "LagZip", "displayName": "LagZip", "badges": []}], "createdAtUtc": "2024-11-10T10:06:23.213Z", "lastUpdatedAtUtc": "2026-07-06T20:08:24.26Z", "mainboardCount": 100, "sideboardCount": 0, "maybeboardCount": 31, "hubNames": [], "colors": ["U", "R", "G"], "colorPercentages": {"white": 0, "blue": 0.38, "black": 0, "red": 0.32, "green": 0.3}, "colorIdentity": ["U", "R", "G"], "colorIdentityPercentages": {"white": 0, "blue": 0.36, "black": 0, "red": 0.33, "green": 0.32}, "bracket": 3, "userBracket": 2, "autoBracket": 3, "ignoreBrackets": false}, {"matchTypes": [], "matchedCards": [], "id": "A6Kg4a", "name": "Terra, Herald of Hope (Reanimator)", "hasPrimer": false, "format": "commander", "areCommentsEnabled": true, "visibility": "public", "publicUrl": "https://moxfield.com/decks/03urc_IXrU-vsENEbFC73A", "publicId": "03urc_IXrU-vsENEbFC73A", "likeCount": 0, "viewCount": 41, "commentCount": 0, "sfwCommentCount": 0, "bookmarkCount": 0, "isLegal": true, "authorsCanEdit": false, "isShared": false, "mainCardId": "Mz9je", "mainCardIdIsCardFace": false, "mainCardIdIsBackFace": false, "createdByUser": {"userName": "LagZip", "displayName": "LagZip", "badges": []}, "authors": [{"userName": "LagZip", "displayName": "LagZip", "badges": []}], "createdAtUtc": "2026-03-01T01:08:44.63Z", "lastUpdatedAtUtc": "2026-07-06T20:07:56.703Z", "mainboardCount": 100, "sideboardCount": 0, "maybeboardCount": 43, "hubNames": [], "colors": ["W", "B", "R"], "colorPercentages": {"white": 0.29, "blue": 0, "black": 0.48, "red": 0.23, "green": 0}, "colorIdentity": ["W", "B", "R"], "colorIdentityPercentages": {"white": 0.3, "blue": 0, "black": 0.44, "red": 0.26, "green": 0}, "bracket": 2, "autoBracket": 2, "ignoreBrackets": false}, {"matchTypes": [], "matchedCards": [], "id": "WxvQ7G", "name": "Oloro, Ageless Ascetic", "hasPrimer": false, "format": "commander", "areCommentsEnabled": true, "visibility": "public", "publicUrl": "https://moxfield.com/decks/Jv392tMO6UeI2UbdfToR8w", "publicId": "Jv392tMO6UeI2UbdfToR8w", "likeCount": 0, "viewCount": 2, "commentCount": 0, "sfwCommentCount": 0, "bookmarkCount": 0, "isLegal": false, "authorsCanEdit": false, "isShared": false, "mainCardId": "kpQz1", "mainCardIdIsCardFace": false, "mainCardIdIsBackFace": false, "createdByUser": {"userName": "LagZip", "displayName": "LagZip", "badges": []}, "authors": [{"userName": "LagZip", "displayName": "LagZip", "badges": []}], "createdAtUtc": "2026-07-06T19:04:02.18Z", "lastUpdatedAtUtc": "2026-07-06T19:18:59.843Z", "mainboardCount": 81, "sideboardCount": 0, "maybeboardCount": 0, "hubNames": [], "colors": ["W", "U", "B"], "colorPercentages": {"white": 0.65, "blue": 0.06, "black": 0.29, "red": 0, "green": 0}, "colorIdentity": ["W", "U", "B"], "colorIdentityPercentages": {"white": 0.62, "blue": 0.09, "black": 0.29, "red": 0, "green": 0}, "bracket": 2, "autoBracket": 2, "ignoreBrackets": false}, {"matchTypes": [], "matchedCards": [], "id": "GgvroZ", "name": "Rebellion Rising (22 swamps) (duplicated from LagZip)", "hasPrimer": false, "format": "commander", "areCommentsEnabled": true, "visibility": "public", "publicUrl": "https://moxfield.com/decks/FzSfAcSEi3-wzyk8c0aizg", "publicId": "FzSfAcSEi3-wzyk8c0aizg", "likeCount": 0, "viewCount": 3, "commentCount": 0, "sfwCommentCount": 0, "bookmarkCount": 0, "isLegal": false, "authorsCanEdit": false, "isShared": false, "mainCardId": "1v2AB", "mainCardIdIsCardFace": false, "mainCardIdIsBackFace": false, "createdByUser": {"userName": "LagZip", "displayName": "LagZip", "badges": []}, "authors": [{"userName": "LagZip", "displayName": "LagZip", "badges": []}], "createdAtUtc": "2026-07-05T21:03:04.39Z", "lastUpdatedAtUtc": "2026-07-05T21:04:07.413Z", "mainboardCount": 101, "sideboardCount": 0, "maybeboardCount": 60, "hubNames": [], "colors": ["W", "R"], "colorPercentages": {"white": 0.62, "blue": 0, "black": 0, "red": 0.38, "green": 0}, "colorIdentity": ["W", "R"], "colorIdentityPercentages": {"white": 0.6, "blue": 0, "black": 0, "red": 0.4, "green": 0}, "bracket": 2, "autoBracket": 2, "ignoreBrackets": false}, {"matchTypes": [], "matchedCards": [], "id": "ONvwpo", "name": "Meria, Scholar of Antiquity", "hasPrimer": false, "format": "commander", "areCommentsEnabled": true, "visibility": "public", "publicUrl": "https://moxfield.com/decks/EDSfAa1nhH6yacJqIqwwiQ", "publicId": "EDSfAa1nhH6yacJqIqwwiQ", "likeCount": 0, "viewCount": 3, "commentCount": 0, "sfwCommentCount": 0, "bookmarkCount": 0, "isLegal": false, "authorsCanEdit": false, "isShared": false, "mainCardId": "kq6Py", "mainCardIdIsCardFace": false, "mainCardIdIsBackFace": false, "createdByUser": {"userName": "LagZip", "displayName": "LagZip", "badges": []}, "authors": [{"userName": "LagZip", "displayName": "LagZip", "badges": []}], "createdAtUtc": "2026-07-05T20:55:18.19Z", "lastUpdatedAtUtc": "2026-07-05T21:01:10.077Z", "mainboardCount": 87, "sideboardCount": 0, "maybeboardCount": 59, "hubNames": [], "colors": ["R", "G"], "colorPercentages": {"white": 0, "blue": 0, "black": 0, "red": 0.08, "green": 0.92}, "colorIdentity": ["R", "G"], "colorIdentityPercentages": {"white": 0, "blue": 0, "black": 0, "red": 0.07, "green": 0.93}, "bracket": 2, "autoBracket": 2, "ignoreBrackets": false}, {"matchTypes": [], "matchedCards": [], "id": "eX59xO", "name": "Bebop & Rocksteady (Power Matters)", "hasPrimer": false, "format": "commander", "areCommentsEnabled": true, "visibility": "public", "publicUrl": "https://moxfield.com/decks/o_GeATu4TXWx0hDfU_eHEA", "publicId": "o_GeATu4TXWx0hDfU_eHEA", "likeCount": 0, "viewCount": 5, "commentCount": 0, "sfwCommentCount": 0, "bookmarkCount": 0, "isLegal": false, "authorsCanEdit": false, "isShared": false, "mainCardId": "DAZeN", "mainCardIdIsCardFace": false, "mainCardIdIsBackFace": false, "createdByUser": {"userName": "LagZip", "displayName": "LagZip", "badges": []}, "authors": [{"userName": "LagZip", "displayName": "LagZip", "badges": []}], "createdAtUtc": "2026-06-22T23:21:39.13Z", "lastUpdatedAtUtc": "2026-06-22T23:22:47.747Z", "mainboardCount": 101, "sideboardCount": 0, "maybeboardCount": 41, "hubNames": [], "colors": ["B", "G"], "colorPercentages": {"white": 0, "blue": 0, "black": 0.51, "red": 0, "green": 0.49}, "colorIdentity": ["B", "G"], "colorIdentityPercentages": {"white": 0, "blue": 0, "black": 0.51, "red": 0, "green": 0.49}, "bracket": 2, "autoBracket": 2, "ignoreBrackets": false}, {"matchTypes": [], "matchedCards": [], "id": "PgdgG3", "name": "Fblthp, Lost on the Range (duplicated from LagZip)", "hasPrimer": false, "format": "commander", "areCommentsEnabled": true, "visibility": "public", "publicUrl": "https://moxfield.com/decks/HuyeAVitVneU-6HW1wmngg", "publicId": "HuyeAVitVneU-6HW1wmngg", "likeCount": 0, "viewCount": 1, "commentCount": 0, "sfwCommentCount": 0, "bookmarkCount": 0, "isLegal": false, "authorsCanEdit": false, "isShared": false, "mainCardId": "Wa53V", "mainCardIdIsCardFace": false, "mainCardIdIsBackFace": false, "createdByUser": {"userName": "LagZip", "displayName": "LagZip", "badges": []}, "authors": [{"userName": "LagZip", "displayName": "LagZip", "badges": []}], "createdAtUtc": "2026-06-21T21:38:13.977Z", "lastUpdatedAtUtc": "2026-06-21T21:53:27.037Z", "mainboardCount": 90, "sideboardCount": 0, "maybeboardCount": 71, "hubNames": [], "colors": ["U"], "colorPercentages": {"white": 0, "blue": 1, "black": 0, "red": 0, "green": 0}, "colorIdentity": ["U"], "colorIdentityPercentages": {"white": 0, "blue": 1, "black": 0, "red": 0, "green": 0}, "bracket": 2, "autoBracket": 2, "ignoreBrackets": false}, {"matchTypes": [], "matchedCards": [], "id": "5jjVOa", "name": "Millicent, Restless Revenant", "hasPrimer": false, "format": "commander", "areCommentsEnabled": true, "visibility": "public", "publicUrl": "https://moxfield.com/decks/gAQxG0AvC0aDh2zmR3GoMg", "publicId": "gAQxG0AvC0aDh2zmR3GoMg", "likeCount": 0, "viewCount": 3, "commentCount": 0, "sfwCommentCount": 0, "bookmarkCount": 0, "isLegal": false, "authorsCanEdit": false, "isShared": false, "mainCardId": "LV5Oq", "mainCardIdIsCardFace": false, "mainCardIdIsBackFace": false, "createdByUser": {"userName": "LagZip", "displayName": "LagZip", "badges": []}, "authors": [{"userName": "LagZip", "displayName": "LagZip", "badges": []}], "createdAtUtc": "2026-06-14T16:55:08.92Z", "lastUpdatedAtUtc": "2026-06-14T17:08:06.943Z", "mainboardCount": 27, "sideboardCount": 0, "maybeboardCount": 0, "hubNames": [], "colors": ["W", "U"], "colorPercentages": {"white": 0.5, "blue": 0.5, "black": 0, "red": 0, "green": 0}, "colorIdentity": ["W", "U"], "colorIdentityPercentages": {"white": 0.5, "blue": 0.5, "black": 0, "red": 0, "green": 0}, "bracket": 2, "autoBracket": 2, "ignoreBrackets": false}, {"matchTypes": [], "matchedCards": [], "id": "QjjjM5", "name": "Kwain, Itinerant Meddler", "hasPrimer": false, "format": "commander", "areCommentsEnabled": true, "visibility": "public", "publicUrl": "https://moxfield.com/decks/f5Tkkj6H_k-LQeCNzN3cjw", "publicId": "f5Tkkj6H_k-LQeCNzN3cjw", "likeCount": 0, "viewCount": 9, "commentCount": 0, "sfwCommentCount": 0, "bookmarkCount": 0, "isLegal": true, "authorsCanEdit": false, "isShared": false, "mainCardId": "LwnP4", "mainCardIdIsCardFace": false, "mainCardIdIsBackFace": false, "createdByUser": {"userName": "LagZip", "displayName": "LagZip", "badges": []}, "authors": [{"userName": "LagZip", "displayName": "LagZip", "badges": []}], "createdAtUtc": "2026-06-13T22:11:21.957Z", "lastUpdatedAtUtc": "2026-06-14T12:07:33.887Z", "mainboardCount": 100, "sideboardCount": 0, "maybeboardCount": 6, "hubNames": [], "colors": ["W", "U"], "colorPercentages": {"white": 0.65, "blue": 0.35, "black": 0, "red": 0, "green": 0}, "colorIdentity": ["W", "U"], "colorIdentityPercentages": {"white": 0.61, "blue": 0.39, "black": 0, "red": 0, "green": 0}, "bracket": 3, "autoBracket": 3, "ignoreBrackets": false}, {"matchTypes": [], "matchedCards": [], "id": "2jjjK4", "name": "Jarad, Golgari Lich Lord", "hasPrimer": false, "format": "commander", "areCommentsEnabled": true, "visibility": "public", "publicUrl": "https://moxfield.com/decks/9MtUynPZxk-FrT4KOkdqkw", "publicId": "9MtUynPZxk-FrT4KOkdqkw", "likeCount": 0, "viewCount": 6, "commentCount": 0, "sfwCommentCount": 0, "bookmarkCount": 0, "isLegal": true, "authorsCanEdit": false, "isShared": false, "mainCardId": "Q9r7a", "mainCardIdIsCardFace": false, "mainCardIdIsBackFace": false, "createdByUser": {"userName": "LagZip", "displayName": "LagZip", "badges": []}, "authors": [{"userName": "LagZip", "displayName": "LagZip", "badges": []}], "createdAtUtc": "2026-06-13T22:11:03.027Z", "lastUpdatedAtUtc": "2026-06-14T10:23:59.53Z", "mainboardCount": 100, "sideboardCount": 0, "maybeboardCount": 0, "hubNames": [], "colors": ["B", "G"], "colorPercentages": {"white": 0, "blue": 0, "black": 0.64, "red": 0, "green": 0.36}, "colorIdentity": ["B", "G"], "colorIdentityPercentages": {"white": 0, "blue": 0, "black": 0.58, "red": 0, "green": 0.42}, "bracket": 2, "autoBracket": 2, "ignoreBrackets": false}, {"matchTypes": [], "matchedCards": [], "id": "120QM4", "name": "Toph, Earthbending Master", "hasPrimer": false, "format": "commander", "areCommentsEnabled": true, "visibility": "public", "publicUrl": "https://moxfield.com/decks/ZtiJZi2jgE-lJFF6MlA4zA", "publicId": "ZtiJZi2jgE-lJFF6MlA4zA", "likeCount": 0, "viewCount": 6, "commentCount": 0, "sfwCommentCount": 0, "bookmarkCount": 0, "isLegal": false, "authorsCanEdit": false, "isShared": false, "mainCardId": "MzwAV", "mainCardIdIsCardFace": false, "mainCardIdIsBackFace": false, "createdByUser": {"userName": "LagZip", "displayName": "LagZip", "badges": []}, "authors": [{"userName": "LagZip", "displayName": "LagZip", "badges": []}], "createdAtUtc": "2026-05-20T11:44:57.537Z", "lastUpdatedAtUtc": "2026-06-12T19:19:25.227Z", "mainboardCount": 149, "sideboardCount": 0, "maybeboardCount": 1, "hubNames": [], "colors": ["G"], "colorPercentages": {"white": 0, "blue": 0, "black": 0, "red": 0, "green": 1}, "colorIdentity": ["G"], "colorIdentityPercentages": {"white": 0, "blue": 0, "black": 0, "red": 0, "green": 1}, "bracket": 2, "autoBracket": 2, "ignoreBrackets": false}, {"matchTypes": [], "matchedCards": [], "id": "VDVBoq", "name": "Gregor, Shrewd Magistrate", "hasPrimer": false, "format": "commander", "areCommentsEnabled": true, "visibility": "public", "publicUrl": "https://moxfield.com/decks/VJqeAScZVXu8gNl1nRkFbw", "publicId": "VJqeAScZVXu8gNl1nRkFbw", "likeCount": 0, "viewCount": 5, "commentCount": 0, "sfwCommentCount": 0, "bookmarkCount": 0, "isLegal": false, "authorsCanEdit": false, "isShared": false, "mainCardId": "LmyRK", "mainCardIdIsCardFace": false, "mainCardIdIsBackFace": false, "createdByUser": {"userName": "LagZip", "displayName": "LagZip", "badges": []}, "authors": [{"userName": "LagZip", "displayName": "LagZip", "badges": []}], "createdAtUtc": "2026-06-06T00:27:43.27Z", "lastUpdatedAtUtc": "2026-06-06T20:31:19.137Z", "mainboardCount": 83, "sideboardCount": 0, "maybeboardCount": 0, "hubNames": [], "colors": ["W", "U"], "colorPercentages": {"white": 0.33, "blue": 0.67, "black": 0, "red": 0, "green": 0}, "colorIdentity": ["W", "U"], "colorIdentityPercentages": {"white": 0.37, "blue": 0.63, "black": 0, "red": 0, "green": 0}, "bracket": 3, "autoBracket": 3, "ignoreBrackets": false}]}